gs://naz/20170311/20170311_174938.jpg
gs://naz/20170311/20170311_174958.jpg
gs://naz/20170311/20170311_175005.jpg
gs://naz/20170311/20170311_175013.jpg
gs://naz/20170311/20170311_175021.jpg
file:///home/sf/projects/pricextractor/imgs/20140424_161153-2.jpg
file:///home/sf/projects/pricextractor/imgs/large_2.jpg
file:///home/sf/projects/pricextractor/imgs/large_1.jpg
file:///home/sf/projects/pricextractor/imgs/large_3.jpg
file:///home/sf/projects/pricextractor/imgs/large_4.jpg